<svg width="45" height="45" viewBox="0 0 45 45" fill="none" xmlns="http://www.w3.org/2000/svg">
<path d="M32.9521 16.2875C32.2021 16.6125 31.4271 16.8375 30.6021 16.9375C31.4521 16.4375 32.1021 15.6375 32.4021 14.6625C31.6021 15.1375 30.7271 15.4625 29.8021 15.6625C29.0521 14.8625 27.9771 14.3625 26.8021 14.3625C24.5271 14.3625 22.7021 16.2125 22.7021 18.4626C22.7021 18.7876 22.7271 19.0875 22.8021 19.3875C19.4021 19.2375 16.4021 17.5875 14.3771 15.1125C12.9271 17.7125 14.5521 19.8626 15.6271 20.5876C14.9771 20.5876 14.3271 20.3876 13.7771 20.0876C13.7771 22.1126 15.2021 23.7876 17.0521 24.1626C16.6521 24.2876 15.7521 24.3626 15.2021 24.2376C15.7271 25.8626 17.2521 27.0626 19.0271 27.0876C17.6271 28.1876 15.5771 29.0626 12.9521 28.7876C14.7771 29.9626 16.9271 30.6376 19.2521 30.6376C26.8021 30.6376 30.9021 24.3876 30.9021 18.9875C30.9021 18.8126 30.9021 18.6376 30.8771 18.4626C31.7271 17.8375 32.4271 17.1125 32.9521 16.2875Z" fill="#002816"/>

</svg>
